%YAML 1.1
%TAG !u! tag:unity3d.com,2011:
--- !u!1045 &1
EditorBuildSettings:
  m_ObjectHideFlags: 0
  serializedVersion: 2
  m_Scenes:
  - enabled: 1
    path: Assets/NusaRaraRunner/Scene/NusaRaraRunner.unity
    guid: 680767924eb3742498154fd139a63075
  m_configObjects: {}
